{
  "images" : [
    {
      "idiom" : "universal",
      "filename" : "save_btn_s27b_h1@1x.png",
      "scale" : "1x"
    },
    {
      "idiom" : "universal",
      "filename" : "save_btn_s27b_h1@2X.png",
      "scale" : "2x"
    },
    {
      "idiom" : "universal",
      "filename" : "save_btn_s27b_h1@3X.png",
      "scale" : "3x"
    }
  ],
  "info" : {
    "version" : 1,
    "author" : "xcode"
  }
}